{
    "general": {
        "type": "header",
        "description": "General Settings"
    },
    "panelIcon": {
        "type": "iconfilechooser",
        "description": "Panel Icon",
        "default": "system-shutdown-symbolic",
        "value": "/home/tgy-tutorials/.icons/start-menu-icons/shutdown-white.svg"
    },
    "panelText": {
        "type": "entry",
        "description": "Panel Text",
        "default": "",
        "value": ""
    },
    "iconSize": {
        "type": "spinbutton",
        "default": 20,
        "min": 10,
        "max": 50,
        "units": "px",
        "step": 2,
        "description": "Icon Size",
        "value": 16.0
    },
    "symbolicMenuIcons": {
        "type": "checkbox",
        "description": "Symbolic icons in menu",
        "default": true,
        "value": true
    },
    "__md5__": "8f111a1bcf1def1fbec2f83134cc44fc"
}