<?xml version="1.0" encoding="UTF-8" standalone="no"?>
<!-- Created with Inkscape (http://www.inkscape.org/) -->

<svg
   width="72"
   height="72"
   viewBox="0 0 19.05 19.050001"
   version="1.1"
   id="svg5"
   inkscape:version="1.1.1 (3bf5ae0d25, 2021-09-20, custom)"
   sodipodi:docname="point.svg"
   xmlns:inkscape="http://www.inkscape.org/namespaces/inkscape"
   xmlns:sodipodi="http://sodipodi.sourceforge.net/DTD/sodipodi-0.dtd"
   xmlns="http://www.w3.org/2000/svg"
   xmlns:svg="http://www.w3.org/2000/svg">
  <sodipodi:namedview
     id="namedview7"
     pagecolor="#505050"
     bordercolor="#eeeeee"
     borderopacity="1"
     inkscape:pageshadow="0"
     inkscape:pageopacity="0"
     inkscape:pagecheckerboard="0"
     inkscape:document-units="mm"
     showgrid="false"
     units="px"
     width="72px"
     inkscape:zoom="8.4224493"
     inkscape:cx="37.696873"
     inkscape:cy="37.637508"
     inkscape:current-layer="layer1" />
  <defs
     id="defs2">
    <filter
       inkscape:collect="always"
       style="color-interpolation-filters:sRGB"
       id="filter2424"
       x="-0.0522211"
       y="-0.0522211"
       width="1.1044422"
       height="1.1044422">
      <feGaussianBlur
         inkscape:collect="always"
         stdDeviation="0.12419119"
         id="feGaussianBlur2426" />
    </filter>
  </defs>
  <g
     inkscape:label="Layer 1"
     inkscape:groupmode="layer"
     id="layer1">
    <circle
       style="fill:#333333;fill-opacity:0.999824;stroke:none;stroke-width:0.0139895;stroke-linecap:square;stroke-dashoffset:65;filter:url(#filter2424)"
       id="circle2026"
       cx="9.8608112"
       cy="9.8608112"
       r="2.8538163"
       transform="matrix(0.47737845,0,0,0.47737845,5.1436072,5.1436072)" />
    <circle
       style="fill:#fbc02d;fill-opacity:1;stroke:none;stroke-width:0.00667828;stroke-linecap:square;stroke-dashoffset:65"
       id="path846"
       cx="9.6906366"
       cy="9.6906366"
       r="1.3623503" />
  </g>
</svg>
